<?php

defined('BASEPATH') OR exit('No direct script access allowed');

class Migration_Add_admin extends CI_Migration {

        public function up()
        {
                $this->dbforge->add_field(
                        array(
                                'id' => array(
                                        'type' => 'INT',
                                        'constraint' => 5,
                                        'unsigned' => TRUE,
                                        'auto_increment' => TRUE
                                ),
                                'username' => array(
                                        'type' => 'VARCHAR',
                                        'constraint' => '100',
                                ),
                                'password' => array(
                                        'type' => 'VARCHAR',
                                        'constraint' => '100',
                                        'null' => FALSE,
                                ),
                                'email' => array(
                                        'type' => 'VARCHAR',
                                        'constraint' => '100',
                                        'null' => FALSE,
                                ),
                        ));
                $this->dbforge->add_key('id', TRUE);
                $this->dbforge->create_table('tbl_admin');
        }

        public function down()
        {
                $this->dbforge->drop_table('tbl_admin');
        }
}